Waterborne illness
…
There is a large difference among states (and nations) testing for COVID-19, and this will, in part, dictate how governments respond. The following work is geared towards developing an understanding of what factors might predict a states per-capita testing rate.

Get additional data.

With the help of former WR-419 student, Spencer Rhea, we can download and analyze census data (things like race, income, etc) to see if these factors predict per-capita testing rates.

#Load in census data (which is a shapefile = geospatial data)
#Dataset is called state_census
load('data/state_census.RData')
#Get cumulative testing rates
all_state_cume <- get_states_current()

all_state_cume

## # A tibble: 56 x 18
##    state positive positive_score negative_score negative_regula~
##    <chr>    <int>          <int>          <int>            <int>
##  1 AK          42              1              1                1
##  2 AL         242              1              1                0
##  3 AR         232              1              1                1
##  4 AZ         367              1              1                1
##  5 CA        2102              1              1                1
##  6 CO         912              1              1                1
##  7 CT         618              1              1                1
##  8 DC         183              1              1                1
##  9 DE         104              1              1                0
## 10 FL        1467              1              1                1
## # ... with 46 more rows, and 13 more variables: commercial_score <int>,
## #   grade <chr>, score <int>, negative <int>, pending <int>,
## #   hospitalized <int>, death <int>, total <int>, last_update <dttm>,
## #   check_time <dttm>, date_modified <dttm>, date_checked <dttm>,
## #   request_datetime <dttm>
…
